{
    "@context": "https://w3id.org/codemeta/3.0",
    "type": "SoftwareSourceCode",
    "author": [
        {
            "type": "Person",
            "familyName": "Santos",
            "givenName": "Frédéric"
        }
    ],
    "codeRepository": "git+https://gitlab.com/f-santos/test-swh",
    "license": "https://spdx.org/licenses/AGPL-3.0",
    "name": "Leap",
    "programmingLanguage": "Bash"
}